…
# Climate
c_ombrothermic_diagram(data = weather_blue_grass_airport,
                       year_start = 1991,
                       year_end = 2020,
                       source = "Blue Grass Airport (Lexington)")
#> $table
#> # A tibble: 48 × 4
#>    month  rain variable                        value
#>    <chr> <dbl> <chr>                           <dbl>
#>  1 Apr   112.  "Average air\ntemperature (°C)"  13.4
#>  2 Apr   112.  "Minimum air\ntemperature (°C)"   7.4
#>  3 Apr   112.  "Maximum air\ntemperature (°C)"  22.6
#>  4 Apr   112.  "Number of\nfreezing day"         0  
#>  5 Aug    94.2 "Average air\ntemperature (°C)"  24.2
#>  6 Aug    94.2 "Minimum air\ntemperature (°C)"  18.5
#>  7 Aug    94.2 "Maximum air\ntemperature (°C)"  33.3
#>  8 Aug    94.2 "Number of\nfreezing day"         0  
#>  9 Dec   108.  "Average air\ntemperature (°C)"   3.1
#> 10 Dec   108.  "Minimum air\ntemperature (°C)"  -1.3
#> # ℹ 38 more rows
…
