Climate • weatheR
…
      Source: vignettes/climate.Rmd
      climate.Rmd

Ombrothermic diagram

#> $table
#> # A tibble: 48 × 4
#>    month  rain variable                        value
#>    <ord> <dbl> <chr>                           <dbl>
#>  1 Jan    86.6 "Average air\ntemperature (°C)"   0.7
#>  2 Jan    86.6 "Minimum air\ntemperature (°C)"  -3.8
#>  3 Jan    86.6 "Maximum air\ntemperature (°C)"  10.6
#>  4 Jan    86.6 "Number of\nfreezing day"         6.7
#>  5 Feb    91.2 "Average air\ntemperature (°C)"   2.9
#>  6 Feb    91.2 "Minimum air\ntemperature (°C)"  -2.1
#>  7 Feb    91.2 "Maximum air\ntemperature (°C)"  14.1
#>  8 Feb    91.2 "Number of\nfreezing day"         3.9
#>  9 Mar   113.  "Average air\ntemperature (°C)"   7.4
#> 10 Mar   113.  "Minimum air\ntemperature (°C)"   2  
#> # ℹ 38 more rows
…
